{
  "oid": "1.3.6.1.4.1.50263.0.0.12536",
  "a": "0xAAAAAAAAAAAAAAAAAAAAAAAAAAAAAAAAAAAAAAAAAAAAAAAAAAAAAAA9FFFFFFFFFFFFFFFFFFFFFFFFFFFFFFFFFFFFFFFFFFFFFFFE1A76D41F",
  "b": "0x5ED097B425ED097B425ED097B425ED097B425ED097B425ED097B425E71C71C71C71C71C71C71C71C71C71C71C71C71C71C72C87B7CC69F70",
  "e": "0x01",
  "d": "0xD78B4BDC7F0DAF19F24F38C29373A2CCAD46157242A50F37809B1DA3412A12E79CCC9C81264CFE9AD080997058FB61C4243CC32DBAA156B9",
  "name": "Wei448",
  "g": "0x04AAAAAAAAAAAAAAAAAAAAAAAAAAAAAAAAAAAAAAAAAAAAAAAAAAAAAAAA0000000000000000000000000000000000000000000000000000CB917D235D1295F5B1F66C98AB6E58326FCECBAE5D34F55545D060F75DC28DF3F6EDB8027E2346430D211312C4B150677AF76FD7223D457B5B1A",
  "h": "0x04",
  "n": "0x3FFFFFFFFFFFFFFFFFFFFFFFFFFFFFFFFFFFFFFFFFFFFFFFFFFFFFFF7CCA23E9C44EDB49AED63690216CC2728DC58F552378C292AB5844F3",
  "p": "0xFFFFFFFFFFFFFFFFFFFFFFFFFFFFFFFFFFFFFFFFFFFFFFFFFFFFFFFEFFFFFFFFFFFFFFFFFFFFFFFFFFFFFFFFFFFFFFFFFFFFFFFFFFFFFFFF",
  "u": "0x79A70B2B70400553AE7C9DF416C792C61128751AC92969240C25A07D728BDC93E21F7787ED6972249DE732F38496CD11698713093E9C04FC",
  "v": "0x7FFFFFFFFFFFFFFFFFFFFFFFFFFFFFFFFFFFFFFFFFFFFFFFFFFFFFFF80000000000000000000000000000000000000000000000000000001",
  "stress": "0x049CDCF28D98CB300B52E797AB4BAC3EB5B72D82D89F947FFD07190B191388DC5D473A47E97FEC59806D757401A26F9530C2BD6B1D1143E6FB708AC11638D9011F0C66A316EF4759BB58B6FEF5FDD2D748B9D0DE8D42CA204771F1CE23B7D1957B6FB0E975BF406F06039C20BACE872E08",
  "stress_g": "0x04F5928BB942752018FF5F0066DE9F8A487AB78DB828272137A74B74283ACA00ABD37034D57229660232D4256486413FE2C313C5E91BD3F363C0A80DD23C4F65E2D2B69C6E5EEF7A86A11A834BE4D45F8240BE8369049B25A7B066052F3134AE06824DD6A5209A032CECEB4C479119CD9D"
}
