{
  "oid": "1.3.132.0.29",
  "a": "0xD6031998D1B3BBFEBF59CC9BBFF9AEE1",
  "b": "0x5EEEFCA380D02919DC2C6558BB6D8A5D",
  "e": "0xBE5BB569B67DB95875BB326ABC96194B",
  "d": "0xBE5BB569B67DB95875BB326ABC96194F",
  "name": "secp128r2",
  "g": "0x047B6AA5D85E572983E6FB32A7CDEBC14027B6916A894D3AEE7106FE805FC34B44",
  "h": "0x04",
  "n": "0x3FFFFFFF7FFFFFFFBE0024720613B5A3",
  "p": "0xFFFFFFFDFFFFFFFFFFFFFFFFFFFFFFFF",
  "u": "0xCD8A0C4471C2707A87F229F017E551DF",
  "v": "0x0FE146BB2BB630C5B5C479ADC70DBA75",
  "stress": "0x04BF7933F052E34AD7CE1ED7616EB3548A68E9F5BFDD2F433A5FD5594D05225616",
  "stress_g": "0x04A2067CB9CEAB95111CF050AAAD06B082FDCA12C26FABA50295A1D9273086018B"
}
